jawaban soal no 1
CREATE DATABASE myshop;

jawaban soal no 2
use myshp;

create table users (
    -> id int primary key auto_increment,
    -> name varchar(225),
    -> email varchar(225),
    -> password varchar(225)
    -> );
create table items (
    -> id int auto_increment primary key,
    -> name varchar(225),
    -> description varchar(225),
    -> price int,
    -> stock int,
    -> category_id int
    -> );
 create table categories(
    -> id int auto_increment primary key,
    -> name varchar(225)
    -> );

   jawaban no 3
   TABLE USERS
    INSERT INTO users
    -> VALUES ("John Doe", "john@doe.com", "john123");
    INSERT INTO users (name, email, password)
    ->  VALUES ("Jane Doe","jane@doe.com","jenita123");

    TABLE CATEGORIES
    INSERT INTO categories (name)
    -> VALUES ("gadged");
    INSERT INTO categories (name)
    -> VALUES ("cloth");
    INSERT INTO categories (name)
    -> VALUES ("men");
    INSERT INTO categories (name)
    -> VALUES ("women");
    INSERT INTO categories (name)
    -> VALUES ("branded");

	TABLE ITEMS

	INSERT INTO items (name, description, price, stock, category_id)
    -> VALUES ("Samsung b50", "hape keren dari merek samsung","4000000","100","1");

     INSERT INTO items (name, description, price, stock, category_id)
    -> VALUES ("Uniklooh","baju keren dari barnd ternaman","500000","50","2");

     INSERT INTO items (name, description, price, stock, category_id)
    -> VALUES ("IMHO Watch","jam tangan anak yang jujur banget","2000000","10","1");


    JAWABAN NO 4
    a. SELECT id, name, email FROM users;
	+----+----------+--------------+
	| id | name     | email        |
	+----+----------+--------------+
	|  1 | John Doe | john@deo.com |
	|  2 | Jane Doe | jane@doe.com |
	+----+----------+--------------+

b. SELECT * FROM items WHERE price =">1000000";


SELECT * FROM items WHERE name LIKE 'Uniklooh';
+----+----------+--------------------------------+--------+-------+-------------+
| id | name     | description                    | price  | stock | category_id |
+----+----------+--------------------------------+--------+-------+-------------+
|  2 | Uniklooh | baju keren dari barnd ternaman | 500000 |    50 |           2 |
+----+----------+--------------------------------+--------+-------+-------------+


C.  SELECT items.name, items.description, items.price, items.stock FROM items JOIN categories ON items.id = categories.name;

JAWABAN NO 5
 UPDATE items SET price ="2500000" WHERE id=1;